Week 4: Selection
…
if(!dir.exists(paste0(here(),"/data"))) dir.create(paste0(here(),"/data"))

2. Estimate genetic values for an observed phenotypic trait

Motivation: A lot of genetics can be carried out without use of any molecular markers. Practitioners of empirical population genetics forget this quite often. A common garden allows us to create a standardized environment in which we minimize the influence of environment on the expression of a particular phenotypic trait. Since we know, after over a century of showing it to be true, that phenotypic variation results from genetic variation, environmental variation, and the interaction of genetic and environmental variation, then if we standardize the environment, phenotypic variation we see in the common garden is due to genetic variation (or if multiple gardens are used, genetics and the interaction of genetics and the environment).

Goals & Background: The goal for this part of the laboratory is to construct, fit, and assess LMMs for \(δ^{13}C\). We will be using the data in the file named “WWP_phenotypic_data.txt”. These data are organized in a tab-delimited text file with seedlings grouped by maternal tree (i.e. its mother tree), plot, and population. Also included is an experimental treatment known as “block”. In a common garden, seedlings from the same maternal tree are randomized among blocks to avoid the influence of micro-environmental variation on expression of phenotypic traits.

a) Import phenytypic data

phen <- read.delim(paste0(here(),"/data/WWP_phenotype_data.txt"), sep = "\t", header = T)
as.tibble(phen)

## # A tibble: 779 x 5
##    population   plot family block    d13c
##        <fctr> <fctr>  <int> <int>   <dbl>
##  1    blk cyn    BC1     59     5 -30.174
##  2    blk cyn    BC1     59     2 -29.651
##  3    blk cyn    BC1     59     4 -29.563
##  4    blk cyn    BC1     59     3 -29.201
##  5    blk cyn    BC1     59     1 -28.998
##  6    blk cyn    BC1     60     4 -31.234
##  7    blk cyn    BC1     60     3 -30.665
##  8    blk cyn    BC1     60     1 -30.520
##  9    blk cyn    BC1     60     5 -30.099
## 10    blk cyn    BC1     60     2 -29.281
## # ... with 769 more rows
…
